{
  "vertexArchetypes": [
    {
      "name": "person",
      "text": "not used"
    },
    {
      "name": "device",
      "text": "not used"
    },
    {
      "name": "theory",
      "text": "not used"
    }
  ],

  "edgeArchetypes": [
    {
      "name": "relationship",
      "text": "not used"
    }
  ],

  "attributeTypes": [
    {
      "name": "description",
      "dataType": "string",
      "text": "not used"
    },
    {
      "name": "begin",
      "dataType": "date",
      "text": "not used"
    },
    {
      "name": "end",
      "dataType": "date",
      "text": "not used"
    },
    {
      "name": "relation",
      "dataType": "string",
      "text": "not used"
    }
  ],

  "vertices": [
    {
      "id": 0,
      "archetype": 0, "text": "not used",
      "title": "Blaise Pascal",

      "attributes": {
        "0": "francouzský matematik, fyzik, spisovatel, teolog a náboženský filosof ",
        "1": "1623-01-01 00:00:00",
        "2": "1662-01-01 00:00:00"
      }
    },
    {
      "id": 1,
      "archetype": 1, "text": "not used",
      "title": "Pascaline",

      "attributes": {
        "0": "Mechanický počítač umožňující základní operace",
        "1": "1645-01-01 00:00:00"
      }
    },
    {
      "id": 2,
      "archetype": 0, "text": "not used",
      "title": "Gottfried Wilhelm Leibniz",

      "attributes": {
        "0": "německý filosof, vědec, matematik a teolog píšící převážně v latině a francouzštině. Je považován za polyhistora a univerzálního génia",
        "1": "1646-01-01 00:00:00",
        "2": "1716-01-01 00:00:00"
      }
    }
  ],
  "edges": [
    {
      "id": 1,
      "archetype": 0, "text": "not used",
      "from": 0,
      "to": 1,
      "attributes": { "3": "vytvořil" }
    },
    {
      "id": 2,
      "archetype": 0, "text": "not used",
      "from": 2,
      "to": 1,
      "attributes": { "3": "vytvořil" }
    }
  ]
}